<svg width="56" height="79" viewBox="0 0 56 79" fill="none" xmlns="http://www.w3.org/2000/svg">
<path d="M52.1419 23.6954L13.2552 1.24201C12.7202 0.934595 12.2385 0.922492 11.8609 1.13066C11.8077 1.16213 11.7496 1.18634 11.7012 1.22749L1.70416 7.15308C1.66301 7.17728 1.64848 7.23296 1.67269 7.27411L11.0767 23.0297C11.0839 23.0418 11.0863 23.0587 11.0863 23.0733V44.5632C11.0863 46.1584 12.057 48.0125 13.2528 48.7024L33.2879 60.2704C33.3 60.2776 33.3122 60.2873 33.3194 60.3019L43.3987 77.1903C43.4229 77.2314 43.4786 77.2459 43.5198 77.2217L53.6451 71.209C54.0517 70.9185 54.3083 70.3328 54.3083 69.517V27.8346C54.3083 26.2394 53.3401 24.3852 52.1419 23.6954Z" fill="#292929"/>
<path d="M43.1833 78.5748L42.5539 77.7034L32.5908 61.0087L12.7614 49.5593C11.2679 48.6976 10.0987 46.5021 10.0987 44.5608V23.3201L0.607601 7.42659L0.80851 6.55276L1.21275 6.29134L11.3477 0.281024C12.0981 -0.130476 12.9381 -0.0844845 13.7514 0.382688L52.6381 22.836C54.1316 23.6978 55.3007 25.8932 55.3007 27.8345V69.517C55.3007 70.6329 54.9158 71.5213 54.2211 72.0175L43.1833 78.5748ZM2.98704 7.5452L12.0691 22.7537L12.0812 23.0732V44.5632C12.0812 45.7977 12.8606 47.3299 13.7514 47.8431L34.0238 59.549L34.1884 59.8201L43.7908 75.9073L53.1416 70.3545C53.1585 70.34 53.3183 70.0762 53.3183 69.517V27.8345C53.3183 26.6 52.5388 25.0678 51.6481 24.5546L12.7589 2.1013C12.6161 2.019 12.4273 1.94881 12.3402 1.99964L12.2046 2.07952L2.98704 7.5452Z" fill="#00AB6B"/>
<path d="M31.4625 54.7249C31.4504 54.7442 31.4456 54.766 31.448 54.7878L31.7239 59.3651L33.2925 60.2704C33.3046 60.2777 33.3167 60.2874 33.3239 60.3019L43.35 77.0983C43.4541 77.125 43.5122 77.1395 43.6163 77.1661L53.6496 71.2091C54.0563 70.9186 54.3128 70.3328 54.3128 69.5171V28.0234C54.3128 27.9411 54.2233 27.8878 54.1507 27.9314L44.2408 33.8159C44.2263 33.8255 44.2117 33.8376 44.2045 33.8522L31.4625 54.7249Z" fill="#00AB6B"/>
<path d="M43.7664 78.2287L42.7062 77.96L32.5906 61.0111L30.7655 59.9581L30.4387 54.5263L30.6178 54.2117L43.4808 33.1308L43.7277 32.971L54.1362 26.7888L54.7462 27.0745C55.0899 27.2705 55.3029 27.6361 55.3029 28.0306V69.5243C55.3029 70.6402 54.9181 71.5285 54.2234 72.0247L43.7664 78.2287ZM32.6802 58.772L34.0236 59.549L34.1882 59.8201L43.7906 75.9074L53.1414 70.3545C53.1583 70.34 53.3181 70.0762 53.3181 69.517V29.5774L44.9283 34.5589L32.4526 55.008L32.6802 58.772Z" fill="#00AB6B"/>
<path d="M42.0482 77.149L3.15913 54.6956C1.96336 54.0058 0.992706 52.1516 0.992706 50.5564V8.87397C0.992706 7.27881 1.96336 6.54537 3.15913 7.23524L42.0482 29.6862C43.244 30.376 44.2147 32.2302 44.2147 33.8254V75.5078C44.2147 77.1054 43.244 77.8389 42.0482 77.149Z" fill="#121212"/>
<path d="M42.9122 78.398C42.4668 78.398 42.002 78.2673 41.5518 78.0059L2.6627 55.555C1.1692 54.6932 5.72205e-05 52.4978 5.72205e-05 50.5564V8.87398C5.72205e-05 7.67095 0.455127 6.71966 1.24666 6.26217C1.94621 5.85551 2.82488 5.89908 3.65756 6.37593L42.5443 28.8293C44.0378 29.691 45.2069 31.8865 45.2069 33.8278V75.5103C45.2069 76.7133 44.7518 77.6646 43.9603 78.1221C43.6408 78.306 43.285 78.398 42.9122 78.398ZM42.5443 76.2897C42.7597 76.4131 42.9146 76.4349 42.9703 76.4035C43.0671 76.3478 43.222 76.0549 43.222 75.5103V33.8278C43.222 32.5933 42.4426 31.0611 41.5518 30.5479L2.6627 8.09697C2.44969 7.97352 2.29477 7.94447 2.23668 7.9832C2.13985 8.03888 1.98494 8.33177 1.98494 8.87398V50.5564C1.98494 51.7909 2.76436 53.3232 3.65514 53.8363L42.5443 76.2897Z" fill="#00AB6B"/>
<path d="M19.1615 5.83429L18.1119 4.14972L8.4154 10.1913L9.465 11.8759L19.1615 5.83429Z" fill="#00AB6B"/>
<path d="M54.0418 64.6744L53.2552 63.3679L44.7157 68.5094L45.5022 69.8158L54.0418 64.6744Z" fill="#121212"/>
<path d="M11.7543 35.1226C11.7543 35.1226 9.15459 35.2751 9.58061 41.3387C10.0042 47.4022 12.2312 50.2174 12.2312 50.2174L17.2684 51.9626C17.2684 51.9626 17.3676 52.12 17.5564 52.3886C20.7322 56.949 25.1038 59.3914 28.2821 58.503L30.2088 57.9657L29.8385 44.8921C29.8385 44.8921 27.0282 42.595 25.7017 40.1163C24.3752 37.6352 26.1253 37.3617 26.0212 34.4206C25.9147 31.4821 23.741 26.3068 21.4608 26.2754C19.1807 26.2439 20.1876 28.7855 20.6645 31.1432C21.1413 33.5008 19.9214 35.6745 18.1713 36.5629C16.4212 37.4512 15.9443 38.4558 15.9443 38.4558C15.9443 38.4558 14.9349 36.5919 11.7543 35.1226Z" fill="#292929"/>
<path d="M26.9169 59.677C23.5692 59.677 19.6697 57.1572 16.7432 52.9575C16.6996 52.897 16.6633 52.8413 16.6294 52.7929L11.6309 51.0621L11.4518 50.8346C11.3525 50.7087 9.02877 47.7048 8.58823 41.4089C8.38248 38.4678 8.82302 36.3571 9.90018 35.1323C10.6869 34.2367 11.5317 34.1423 11.6938 34.1326L11.9407 34.1181L12.1683 34.2221C14.0587 35.096 15.2594 36.1175 15.9662 36.8751C16.3752 36.4975 16.9441 36.0715 17.7211 35.6769C19.004 35.0258 20.0933 33.3265 19.6914 31.3392C19.6188 30.9882 19.5365 30.6324 19.4542 30.2814C19.0694 28.6427 18.7063 27.0935 19.5293 26.0696C19.9601 25.5347 20.5943 25.2781 21.4706 25.2805C24.6536 25.3241 26.8975 31.2811 27.0089 34.3819C27.0597 35.8222 26.7136 36.7517 26.4594 37.4318C26.1471 38.2645 26.0189 38.6082 26.5732 39.6443C27.7931 41.922 30.434 44.0981 30.4606 44.1199L30.8116 44.408L31.2159 58.7112L28.5435 59.4567C28.0255 59.6044 27.4785 59.677 26.9169 59.677ZM12.8606 49.3871L17.9147 51.1372L18.3722 51.8246C21.2624 55.9711 25.2225 58.3287 28.0158 57.5493L29.1947 57.2201L28.8582 45.3617C28.0304 44.6355 25.9583 42.699 24.8255 40.5859C23.8476 38.7583 24.23 37.732 24.6028 36.742C24.8303 36.1344 25.0651 35.5026 25.0264 34.4594C24.9199 31.5208 22.8092 27.2896 21.444 27.2702C21.1148 27.2847 21.0688 27.3235 21.0688 27.3235C20.863 27.6091 21.2019 29.0542 21.3859 29.8336C21.473 30.204 21.5601 30.5792 21.6352 30.9495C22.1653 33.5637 20.8969 36.2966 18.6191 37.4512C17.2467 38.1483 16.8327 38.8987 16.8303 38.906L15.9613 40.5302L15.073 38.9326C15.0681 38.9253 14.2088 37.4512 11.6793 36.1925C11.1637 36.5048 10.3238 37.7756 10.5707 41.2757C10.8999 45.9934 12.3813 48.6416 12.8606 49.3871Z" fill="#00AB6B"/>
<path d="M16.3946 52.4323C15.407 50.5878 15.177 47.8428 15.1674 47.7267L17.145 47.5669C17.1474 47.5911 17.3556 50.0189 18.1447 51.4955L16.3946 52.4323Z" fill="#00AB6B"/>
<path d="M16.5642 41.1499L14.5817 41.099C14.6229 39.4264 14.8092 38.3444 15.1312 37.8845L16.7554 39.0246C16.6973 39.194 16.5884 40.2204 16.5642 41.1499Z" fill="#00AB6B"/>
<path d="M32.6445 51.2243L26.2881 47.5547C25.2908 46.9786 24.4823 45.4342 24.4823 44.1029C24.4823 42.7716 25.2908 42.1616 26.2881 42.7377L32.6445 46.4073C33.6418 46.9834 34.4503 48.5277 34.4503 49.8591C34.4527 51.188 33.6442 51.8004 32.6445 51.2243Z" fill="#292929"/>
<path d="M33.3655 52.4321C32.9686 52.4321 32.5522 52.3159 32.1504 52.0835L25.794 48.4139C24.482 47.6563 23.492 45.8046 23.492 44.1029C23.492 43.0402 23.9011 42.193 24.6127 41.7815C25.2542 41.4136 26.0433 41.4499 26.7864 41.8759L33.1429 45.5455C34.4548 46.3032 35.4448 48.1574 35.4448 49.8566C35.4448 50.9192 35.0357 51.7665 34.3217 52.178C34.0312 52.3474 33.7044 52.4321 33.3655 52.4321ZM25.5713 43.5123C25.5761 43.5268 25.4769 43.7059 25.4769 44.1029C25.4769 45.1534 26.1691 46.3395 26.7864 46.6953L33.1429 50.3649C33.3099 50.4618 33.3655 50.4497 33.3655 50.4497C33.3534 50.44 33.4599 50.2633 33.4599 49.859C33.4599 48.8085 32.7677 47.6224 32.1504 47.2666L25.794 43.597C25.6511 43.5147 25.5785 43.5123 25.5713 43.5123Z" fill="#00AB6B"/>
<path d="M32.2204 54.9496L26.7136 51.769C25.8906 51.2945 25.225 50.0213 25.225 48.9248C25.225 47.8282 25.8906 47.3248 26.7136 47.7992L32.2204 50.9798C33.0434 51.4543 33.7091 52.7275 33.7091 53.824C33.7091 54.9206 33.0434 55.424 32.2204 54.9496Z" fill="#292929"/>
<path d="M32.8158 56.1213C32.4575 56.1213 32.0848 56.0172 31.7241 55.809L26.2173 52.6308C25.0869 51.9772 24.2324 50.3845 24.2324 48.9273C24.2324 47.9857 24.6003 47.2353 25.2442 46.865C25.8276 46.5261 26.544 46.5551 27.2121 46.9424L32.719 50.1231C33.8494 50.7766 34.7038 52.3694 34.7038 53.8266C34.7038 54.7682 34.3359 55.5186 33.6945 55.8889C33.4209 56.0438 33.1232 56.1213 32.8158 56.1213ZM26.2391 48.6707C26.227 48.7312 26.2173 48.816 26.2173 48.9249C26.2173 49.7334 26.7401 50.6411 27.2097 50.9122L32.6948 54.0783C32.7093 54.0154 32.7165 53.9331 32.7165 53.8241C32.7165 53.0157 32.1937 52.108 31.7241 51.8393L26.2391 48.6707Z" fill="#00AB6B"/>
<path d="M31.5838 58.5536L26.7136 55.7409C25.8906 55.2665 25.225 53.9932 25.225 52.8943C25.225 51.7978 25.8906 51.2943 26.7136 51.7687L31.5838 54.5814C32.4068 55.0559 33.0725 56.3291 33.0725 57.4256C33.0725 58.5246 32.4068 59.028 31.5838 58.5536Z" fill="#292929"/>
<path d="M32.1792 59.7253C31.8209 59.7253 31.4482 59.6212 31.0875 59.413L26.2173 56.6003C25.0869 55.9467 24.2324 54.354 24.2324 52.8944C24.2324 51.9528 24.6003 51.2024 25.2442 50.832C25.8276 50.4956 26.544 50.5246 27.2121 50.9095L32.0823 53.7222C33.2128 54.3758 34.0672 55.9685 34.0672 57.4257C34.0672 58.3673 33.6993 59.1177 33.0578 59.488C32.7843 59.6478 32.4866 59.7253 32.1792 59.7253ZM26.2391 52.6426C26.227 52.7056 26.2173 52.7879 26.2173 52.8968C26.2173 53.7053 26.7401 54.613 27.2097 54.8817L32.0581 57.6823C32.0727 57.6194 32.0799 57.5371 32.0799 57.4281C32.0799 56.6196 31.5571 55.7119 31.0875 55.4432L26.2391 52.6426Z" fill="#00AB6B"/>
<path d="M30.7347 62.0347L27.2951 60.0498C26.4721 59.5754 25.8064 58.3022 25.8064 57.2056C25.8064 56.1091 26.4721 55.6056 27.2951 56.0801L30.7347 58.065C31.5577 58.5394 32.2234 59.8126 32.2234 60.9091C32.2258 62.0057 31.5577 62.5092 30.7347 62.0347Z" fill="#292929"/>
<path d="M31.3298 63.2063C30.9716 63.2063 30.5988 63.1022 30.2381 62.894L26.8009 60.9092C25.6705 60.2556 24.816 58.6629 24.816 57.2032C24.816 56.2616 25.1864 55.5112 25.8254 55.1385C26.4088 54.7996 27.1253 54.8311 27.7933 55.2159L31.233 57.2008C32.3658 57.8544 33.2203 59.4471 33.2203 60.9067C33.2203 61.8459 32.8499 62.5987 32.2085 62.9691C31.9374 63.1288 31.6372 63.2063 31.3298 63.2063ZM26.8227 56.9491C26.8082 57.012 26.8009 57.0943 26.8009 57.2032C26.8009 58.0117 27.3237 58.9194 27.7933 59.1881L31.2112 61.1609C31.2233 61.098 31.233 61.0157 31.233 60.9067C31.233 60.0983 30.7077 59.1905 30.2381 58.9194L26.8227 56.9491Z" fill="#00AB6B"/>
</svg>
